{
  "ctrlCfg": {
    "type": "FelixClient",
    "cfg": {
      "FelixClient": {
        "#local_ip_or_interface": "enp134s0",
        "##local_ip_or_interface": "enp175s0f0",
        "NIClocalIPorInterface": "192.168.1.116",
        "localIPorInterface": "lo",
        "logLevel": "info",
        "busDir": "/home/itkstrips/felix-star/bus",
	"bus_interface": "localhost",
        "busGroupName": "FELIX",
        "verboseBus": false,
        "verbose_zyre": false,
        "timeout": 1000,
        "netioPages": 256,
        "netioPagesize": 65536
      },
      "ToFLX": {
        "broadcast": false,
        "detectorID": 0,
        "connectorID": 0,
        "protocol": 0,
        "flip": false
      },
      "ToHost": {
        "detectorID": 0,
        "connectorID": 0,
        "protocol": 0,
        "flushTime": 50,
        "enableMonitor": true,
        "monitorInterval": 1000,
        "queueLimitMB": 4000,
        "waitTime": 10000,
	"useRingBuffers": true
      }
    }
  }
}
