{
    "#pattern": "[%n] %! %@ %v",
    "pattern": "[%T:%e]%^[%=8l][%=15n]:%$ %v",

    "log_config": [
        {"name": "all", "level": "info"},
	{"name": "Star::StarChipPacket", "level": "info"},
        {"name": "StarChips", "level": "info"},
        {"name": "StarCfg", "level": "info"},
	{"name": "#StarMaskLoop", "level": "trace"},
	{"name": "StdParameterLoop", "level": "trace"},
	{"name": "StdDataLoop", "level": "debug"},
	{"name": "StarTriggerLoop", "level": "trace"},
	{"name": "StarFelixTriggerLoop", "level": "trace"},
	{"name": "HistogramAlgorithm", "level": "trace"},
        {"name": "AnalysisAlgorithm", "level": "trace"},
        {"name": "ScanBuildHistogrammers", "level": "trace"},
        {"name": "ScanBuildAnalyses", "level": "trace"},
	{"name": "StarAnalysis", "level": "trace"},
	{"name": "#StarTrimDacAnalysis", "level": "trace"},
	{"name": "StarTrimDacLoop", "level": "trace"},
	{"name": "StarStrobeDelayAnalysis", "level": "trace"},
	{"name": "StarStrobeDelayFitter", "level": "trace"},
	{"name": "StdAnalysis", "level": "trace"},
	{"name": "StarCounterLoop", "level": "trace"},
	{"name": "StarThrottleLoop", "level": "trace"},
	{"name": "StdHistogrammer", "level": "info"},
	{"name": "StarTriggerThrottleAnalysis", "level": "trace"},
	{"name": "StarNoiseOccupancyFitter", "level": "trace"},
	{"name": "StarRegDump", "level": "trace"},
	{"name": "StarConversionTools", "level": "trace"},
	{"name": "Feedback", "level": "trace"},
	{"name": "StarDataProcessor", "level": "trace"},
	{"name": "RingbufferCheckDataLoop", "level": "trace"},
	{"name": "FelixTxCore", "level": "info"},
	{"name": "FelixRxCore", "level": "info"},
	{"name": "FelixTTCEmuTriggerLoop", "level": "info"}
    ]
}
